{
	"name": "Тестова група навчальних мість механіко-математичного факультету",
	"abbreviation": "ТММ",
	"unitId": ${unit2Id},
	"learningPlaceIds": [${learningPlace1Id}, ${learningPlace4Id}],
	"isPrivate": true,
	"responsibleOwnUserIds": [${user1Id}, ${user3Id}],
  	"responsibleGroupIds": [${group1Id}, ${group3Id}]
}