{
	"name": "Адекватні люди (тест 1)",
	"abbreviation": "АЛ (тест 1)",
	"description": "Адекватні люди (опис 1)",
	"userIds": [${user1Id}, ${user2Id}],
	"isPrivate": false,
	"responsibleOwnUserIds": [${user1Id}, ${user2Id}],
  	"responsibleGroupIds": [${group1Id}, ${group2Id}]
}