{
	"surname": "Хапко",
	"firstName": "Роман",
	"middleName": "Степанович",
	"email": "Test5@test5.com",
  	"phone": "4747474747",
	"info": "Хапко Роман Степанович",
	"departmentId": ${department3Id},
	"scientificDegreeId": ${scientificDegree1Id},
	"academicStatus": "PROFESSOR",
	"isPrivate": true,
	"responsibleOwnUserIds": [${user2Id}, ${user3Id}],
  	"responsibleGroupIds": [${group2Id}, ${group3Id}]
}